Detect Columns and Text Boxes in PDF Document — detect_clusters • pdftextclusteR
…
   detect_clusters()
#> [[1]]
#> # A tibble: 7 × 8
#>   width height     x     y space text      .cluster noise
#>   <int>  <int> <int> <int> <lgl> <chr>     <fct>    <lgl>
#> 1   693    184    85   748 TRUE  Terugblik 0        TRUE 
#> 2   362    184   814   748 FALSE 2023      0        TRUE 
#> 3    65     18    84  1029 TRUE  Terugblik 1        FALSE
#> 4    34     18   154  1029 FALSE 2023      1        FALSE
#> 5    28     18   530  1029 TRUE  Ons       2        FALSE
#> 6    54     18   562  1029 FALSE verhaal   2        FALSE
#> 7    13     18  1821  1029 FALSE 12        0        TRUE 
#> 
#> [[2]]
#> # A tibble: 242 × 8
#>    width height     x     y space text       .cluster noise
#>    <int>  <int> <int> <int> <lgl> <chr>      <fct>    <lgl>
#>  1    41     14    85    36 FALSE Inhoud     0        TRUE 
#>  2    56     14   197    36 FALSE Uitgelicht 0        TRUE 
#>  3    62     14   322    36 FALSE Verdieping 0        TRUE 
#>  4    46     14   458    36 FALSE Bijlagen   0        TRUE 
#>  5   246     59    85   100 FALSE Leeswijzer 1        FALSE
#>  6    24     22    84   187 TRUE  De         1        FALSE
#>  7    83     22   112   187 TRUE  Terugblik  1        FALSE
#>  8    13     22   199   187 TRUE  is         1        FALSE
#>  9    22     22   217   187 TRUE  de         1        FALSE
#> 10    81     22   245   187 TRUE  jaarlijkse 1        FALSE
#> # ℹ 232 more rows
#> 
#> [[3]]
#> # A tibble: 226 × 8
#>    width height     x     y space text        .cluster noise
#>    <int>  <int> <int> <int> <lgl> <chr>       <fct>    <lgl>
#>  1    40     14    85    36 FALSE Inhoud      0        TRUE 
#>  2    58     14   197    36 FALSE Uitgelicht  0        TRUE 
#>  3    62     14   322    36 FALSE Verdieping  0        TRUE 
#>  4    46     14   458    36 FALSE Bijlagen    0        TRUE 
#>  5   559    110    85    91 FALSE Voortdurend 1        FALSE
#>  6    81    110    85   176 TRUE  in          1        FALSE
#>  7   480    110   186   176 FALSE verbinding  1        FALSE
#>  8    16     22    84   310 TRUE  In          1        FALSE
#>  9    32     22   105   310 TRUE  een         1        FALSE
#> 10   112     22   141   310 TRUE  samenleving 1        FALSE
#> # ℹ 216 more rows
#> 
#> [[4]]
#> # A tibble: 79 × 8
#>    width height     x     y space text       .cluster noise
#>    <int>  <int> <int> <int> <lgl> <chr>      <fct>    <lgl>
#>  1    58     14   197    36 FALSE Uitgelicht 0        TRUE 
#>  2    40     14    85    36 FALSE Inhoud     0        TRUE 
#>  3    62     14   322    36 FALSE Verdieping 0        TRUE 
#>  4    46     14   458    36 FALSE Bijlagen   0        TRUE 
#>  5   227    110    85    91 TRUE  Onze       1        FALSE
#>  6   271    110   334    91 TRUE  cijfers    1        FALSE
#>  7   194    110   627    91 TRUE  over       1        FALSE
#>  8   217    110   843    91 FALSE 2023       1        FALSE
#>  9   122     98    85   249 FALSE 8,2        2        FALSE
#> 10   118     98   381   249 FALSE 8,7        3        FALSE
#> # ℹ 69 more rows
#> 
#> [[5]]
#> # A tibble: 236 × 8
#>    width height     x     y space text       .cluster noise
#>    <int>  <int> <int> <int> <lgl> <chr>      <fct>    <lgl>
#>  1    40     14    85    36 FALSE Inhoud     0        TRUE 
#>  2    58     14   197    36 FALSE Uitgelicht 0        TRUE 
#>  3    62     14   322    36 FALSE Verdieping 0        TRUE 
#>  4    46     14   458    36 FALSE Bijlagen   0        TRUE 
#>  5   205    110    85    91 TRUE  Voor       1        FALSE
#>  6   162    110   312    91 TRUE  een        1        FALSE
#>  7   382    110   496    91 FALSE gezonde    1        FALSE
#>  8   520    110    85   176 FALSE democratie 1        FALSE
#>  9    32     22    85   310 TRUE  Een        1        FALSE
#> 10    38     22   121   310 TRUE  vrije      1        FALSE
#> # ℹ 226 more rows
#> 
#> [[6]]
#> # A tibble: 313 × 8
#>    width height     x     y space text       .cluster noise
#>    <int>  <int> <int> <int> <lgl> <chr>      <fct>    <lgl>
#>  1    40     14    85    36 FALSE Inhoud     0        TRUE 
#>  2    58     14   197    36 FALSE Uitgelicht 0        TRUE 
#>  3    62     14   322    36 FALSE Verdieping 0        TRUE 
#>  4    46     14   458    36 FALSE Bijlagen   0        TRUE 
#>  5   298    110    85    91 TRUE  Overal     1        FALSE
#>  6    81    110   405    91 TRUE  in         1        FALSE
#>  7   477    110   507    91 FALSE Nederland  1        FALSE
#>  8    34     22    85   235 TRUE  Van        2        FALSE
#>  9    22     22   123   235 TRUE  de         2        FALSE
#> 10    75     22   150   235 TRUE  Wadden     2        FALSE
#> # ℹ 303 more rows
#> 
#> [[7]]
#> # A tibble: 357 × 8
#>    width height     x     y space text       .cluster noise
#>    <int>  <int> <int> <int> <lgl> <chr>      <fct>    <lgl>
#>  1    40     14    85    36 FALSE Inhoud     0        TRUE 
#>  2    58     14   197    36 FALSE Uitgelicht 0        TRUE 
#>  3    62     14   322    36 FALSE Verdieping 0        TRUE 
#>  4    46     14   458    36 FALSE Bijlagen   0        TRUE 
#>  5   395    110    85    91 TRUE  Iedereen   1        FALSE
#>  6   206    110   502    91 TRUE  doet       1        FALSE
#>  7   191    110   729    91 FALSE mee        1        FALSE
#>  8    24     22    85   235 TRUE  De         2        FALSE
#>  9    76     22   113   235 TRUE  publieke   2        FALSE
#> 10    69     22   195   235 TRUE  omroep     2        FALSE
#> # ℹ 347 more rows
#> 
#> [[8]]
#> # A tibble: 336 × 8
#>    width height     x     y space text       .cluster noise
#>    <int>  <int> <int> <int> <lgl> <chr>      <fct>    <lgl>
#>  1    40     14    85    36 FALSE Inhoud     0        TRUE 
#>  2    58     14   197    36 FALSE Uitgelicht 0        TRUE 
#>  3    62     14   322    36 FALSE Verdieping 0        TRUE 
#>  4    46     14   458    36 FALSE Bijlagen   0        TRUE 
#>  5   397    110    85    91 TRUE  Relevant   1        FALSE
#>  6   197    110   502    91 FALSE voor       1        FALSE
#>  7   394    110    85   176 FALSE jongeren   1        FALSE
#>  8    45     22    85   310 TRUE  Ruim       1        FALSE
#>  9    41     22   135   310 TRUE  80%        1        FALSE
#> 10    32     22   180   310 TRUE  van        1        FALSE
#> # ℹ 326 more rows
#> 
#> [[9]]
#> # A tibble: 266 × 8
#>    width height     x     y space text       .cluster noise
#>    <int>  <int> <int> <int> <lgl> <chr>      <fct>    <lgl>
#>  1    40     14    85    36 FALSE Inhoud     0        TRUE 
#>  2    58     14   197    36 FALSE Uitgelicht 0        TRUE 
#>  3    62     14   322    36 FALSE Verdieping 0        TRUE 
#>  4    46     14   458    36 FALSE Bijlagen   0        TRUE 
#>  5   242    110    85    91 TRUE  Altijd     1        FALSE
#>  6   407    110   348    91 FALSE vindbaar   1        FALSE
#>  7   108    110    85   176 TRUE  en         1        FALSE
#>  8   343    110   215   176 FALSE dichtbij   1        FALSE
#>  9    24     22    85   310 TRUE  De         1        FALSE
#> 10    63     22   113   310 TRUE  impact     1        FALSE
#> # ℹ 256 more rows
#> 
#> [[10]]
#> # A tibble: 354 × 8
#>    width height     x     y space text       .cluster noise
#>    <int>  <int> <int> <int> <lgl> <chr>      <fct>    <lgl>
#>  1    40     14    85    36 FALSE Inhoud     0        TRUE 
#>  2    58     14   197    36 FALSE Uitgelicht 0        TRUE 
#>  3    62     14   322    36 FALSE Verdieping 0        TRUE 
#>  4    46     14   458    36 FALSE Bijlagen   0        TRUE 
#>  5   189    110    85    91 TRUE  Oog        1        FALSE
#>  6   197    110   295    91 TRUE  voor       1        FALSE
#>  7   263    110   514    91 TRUE  mens,      1        FALSE
#>  8   270    110   799    91 FALSE milieu     1        FALSE
#>  9   108    110    85   176 TRUE  en         1        FALSE
#> 10   229    110   215   176 TRUE  goed       1        FALSE
#> # ℹ 344 more rows
#> 
#> [[11]]
#> # A tibble: 366 × 8
#>    width height     x     y space text       .cluster noise
#>    <int>  <int> <int> <int> <lgl> <chr>      <fct>    <lgl>
#>  1    40     14    85    36 FALSE Inhoud     0        TRUE 
#>  2    58     14   197    36 FALSE Uitgelicht 0        TRUE 
#>  3    62     14   322    36 FALSE Verdieping 0        TRUE 
#>  4    46     14   458    36 FALSE Bijlagen   0        TRUE 
#>  5    16     16  1311    84 FALSE 43         1        FALSE
#>  6   286    110    85    91 TRUE  Iedere     2        FALSE
#>  7   200    110   393    91 FALSE euro       2        FALSE
#>  8   460    110    85   176 TRUE  doelmatig  2        FALSE
#>  9   359    110   566   176 FALSE besteed    2        FALSE
#> 10    24     22    85   310 TRUE  De         2        FALSE
#> # ℹ 356 more rows
#> 
#> [[12]]
#> # A tibble: 301 × 8
#>    width height     x     y space text        .cluster noise
#>    <int>  <int> <int> <int> <lgl> <chr>       <fct>    <lgl>
#>  1    40     14    85    36 FALSE Inhoud      0        TRUE 
#>  2    58     14   197    36 FALSE Uitgelicht  0        TRUE 
#>  3    62     14   322    36 FALSE Verdieping  0        TRUE 
#>  4    46     14   458    36 FALSE Bijlagen    0        TRUE 
#>  5   542    110    85    91 FALSE Springplank 1        FALSE
#>  6   197    110    85   176 TRUE  voor        1        FALSE
#>  7   265    110   304   176 FALSE talent      1        FALSE
#>  8    56     22    85   310 TRUE  Nieuw       1        FALSE
#>  9    53     22   145   310 TRUE  talent      1        FALSE
#> 10    13     22   203   310 TRUE  is          1        FALSE
#> # ℹ 291 more rows
#> 
#> [[13]]
#> # A tibble: 88 × 8
#>    width height     x     y space text       .cluster noise
#>    <int>  <int> <int> <int> <lgl> <chr>      <fct>    <lgl>
#>  1    40     14    85    36 FALSE Inhoud     0        TRUE 
#>  2    56     14   197    36 FALSE Uitgelicht 0        TRUE 
#>  3    65     14   322    36 FALSE Verdieping 0        TRUE 
#>  4    46     14   458    36 FALSE Bijlagen   0        TRUE 
#>  5   487    110    85    91 FALSE Verdieping 1        FALSE
#>  6   416    110    85   176 TRUE  Terugblik  1        FALSE
#>  7   217    110   522   176 FALSE 2023       1        FALSE
#>  8    24     22    85   310 TRUE  De         1        FALSE
#>  9    83     22   113   310 TRUE  Terugblik  1        FALSE
#> 10    43     22   200   310 TRUE  2023       1        FALSE
#> # ℹ 78 more rows
#> 
#> [[14]]
#> # A tibble: 281 × 8
#>    width height     x     y space text        .cluster noise
#>    <int>  <int> <int> <int> <lgl> <chr>       <fct>    <lgl>
#>  1    40     14    85    36 FALSE Inhoud      0        TRUE 
#>  2    56     14   197    36 FALSE Uitgelicht  0        TRUE 
#>  3    65     14   322    36 FALSE Verdieping  0        TRUE 
#>  4    46     14   458    36 FALSE Bijlagen    0        TRUE 
#>  5   266     59    85   138 TRUE  Veelkleurig 1        FALSE
#>  6    36     59   363   138 TRUE  &           1        FALSE
#>  7   252     59   411   138 TRUE  waardevol   1        FALSE
#>  8   186     59   676   138 FALSE aanbod      1        FALSE
#>  9   105     59    85   186 TRUE  voor        1        FALSE
#> 10    86     59   201   186 TRUE  een         1        FALSE
#> # ℹ 271 more rows
#> 
#> [[15]]
#> # A tibble: 239 × 8
#>    width height     x     y space text           .cluster noise
#>    <int>  <int> <int> <int> <lgl> <chr>          <fct>    <lgl>
#>  1    40     14    85    36 FALSE Inhoud         0        TRUE 
#>  2    56     14   197    36 FALSE Uitgelicht     0        TRUE 
#>  3    65     14   322    36 FALSE Verdieping     0        TRUE 
#>  4    46     14   458    36 FALSE Bijlagen       0        TRUE 
#>  5   138     59    85   138 FALSE Video          0        TRUE 
#>  6    96     98  1507   219 FALSE 69             1        FALSE
#>  7   138     22    85   222 TRUE  Genreverdeling 2        FALSE
#>  8    75     22   227   222 FALSE Televisie      2        FALSE
#>  9   127     22    85   246 TRUE  Onderstaande   2        FALSE
#> 10    82     22   216   246 TRUE  grafieken      2        FALSE
#> # ℹ 229 more rows
#> 
#> [[16]]
#> # A tibble: 215 × 8
#>    width height     x     y space text          .cluster noise
#>    <int>  <int> <int> <int> <lgl> <chr>         <fct>    <lgl>
#>  1    40     14    85    36 FALSE "Inhoud"      0        TRUE 
#>  2    56     14   197    36 FALSE "Uitgelicht"  0        TRUE 
#>  3    65     14   322    36 FALSE "Verdieping"  0        TRUE 
#>  4    46     14   458    36 FALSE "Bijlagen"    0        TRUE 
#>  5    86     36    85   143 FALSE "Video"       1        FALSE
#>  6    14     22  1086   195 TRUE  "4."          2        FALSE
#>  7    82     22  1105   195 TRUE  "\aVerdeling" 2        FALSE
#>  8    78     22  1191   195 TRUE  "uitgaven"    2        FALSE
#>  9    75     22  1274   195 TRUE  "Televisie"   2        FALSE
#> 10    53     22  1354   195 TRUE  "lineair"     2        FALSE
#> # ℹ 205 more rows
#> 
#> [[17]]
#> # A tibble: 359 × 8
#>    width height     x     y space text        .cluster noise
#>    <int>  <int> <int> <int> <lgl> <chr>       <fct>    <lgl>
#>  1    40     14    85    36 FALSE Inhoud      0        TRUE 
#>  2    56     14   197    36 FALSE Uitgelicht  0        TRUE 
#>  3    65     14   322    36 FALSE Verdieping  0        TRUE 
#>  4    46     14   458    36 FALSE Bijlagen    0        TRUE 
#>  5    54     36   307   143 TRUE  Top         1        FALSE
#>  6    35     36   369   143 TRUE  25          1        FALSE
#>  7   199     36   411   143 TRUE  programma’s 1        FALSE
#>  8    72     36   618   143 FALSE 2023        1        FALSE
#>  9    77     22   307   201 TRUE  Publieke    1        FALSE
#> 10    68     22   389   201 FALSE waarde      1        FALSE
#> # ℹ 349 more rows
#> 
#> [[18]]
#> # A tibble: 233 × 8
#>    width height     x     y space text          .cluster noise
#>    <int>  <int> <int> <int> <lgl> <chr>         <fct>    <lgl>
#>  1    40     14    85    36 FALSE "Inhoud"      0        TRUE 
#>  2    56     14   197    36 FALSE "Uitgelicht"  0        TRUE 
#>  3    65     14   322    36 FALSE "Verdieping"  0        TRUE 
#>  4    46     14   458    36 FALSE "Bijlagen"    0        TRUE 
#>  5   142     59    86   138 FALSE "Audio"       1        FALSE
#>  6    11     22  1477   150 TRUE  "7."          2        FALSE
#>  7    82     22  1492   150 TRUE  "\aVerdeling" 2        FALSE
#>  8    78     22  1579   150 TRUE  "uitgaven"    2        FALSE
#>  9    53     22  1662   150 TRUE  "Radio"       2        FALSE
#> 10    53     22  1720   150 TRUE  "lineair"     2        FALSE
#> # ℹ 223 more rows
#> 
#> [[19]]
#> # A tibble: 223 × 8
#>    width height     x     y space text       .cluster noise
#>    <int>  <int> <int> <int> <lgl> <chr>      <fct>    <lgl>
#>  1    40     14    85    36 FALSE Inhoud     0        TRUE 
#>  2    56     14   197    36 FALSE Uitgelicht 0        TRUE 
#>  3    65     14   322    36 FALSE Verdieping 0        TRUE 
#>  4    46     14   458    36 FALSE Bijlagen   0        TRUE 
#>  5   240    116    85    90 TRUE  Onze       1        FALSE
#>  6   316    116   347    90 FALSE genres     1        FALSE
#>  7    41     22    85   222 TRUE  Voor       1        FALSE
#>  8    33     22   130   222 TRUE  alle       1        FALSE
#>  9    59     22   167   222 TRUE  genres     1        FALSE
#> 10    13     22   232   222 TRUE  is         1        FALSE
#> # ℹ 213 more rows
#> 
#> [[20]]
#> # A tibble: 490 × 8
#>    width height     x     y space text           .cluster noise
#>    <int>  <int> <int> <int> <lgl> <chr>          <fct>    <lgl>
#>  1    40     14    85    36 FALSE Inhoud         0        TRUE 
#>  2    56     14   197    36 FALSE Uitgelicht     0        TRUE 
#>  3    65     14   322    36 FALSE Verdieping     0        TRUE 
#>  4    46     14   458    36 FALSE Bijlagen       0        TRUE 
#>  5   354     59    85   138 TRUE  Doelmatigheid  1        FALSE
#>  6    36     59   450   138 TRUE  &              1        FALSE
#>  7   349     59   498   138 FALSE Transparantie: 1        FALSE
#>  8   210     58    85   187 TRUE  integraal      1        FALSE
#>  9   237     58   307   187 TRUE  onderdeel      1        FALSE
#> 10    85     58   555   187 TRUE  van            1        FALSE
#> # ℹ 480 more rows
#> 
#> [[21]]
#> # A tibble: 518 × 8
#>    width height     x     y space text          .cluster noise
#>    <int>  <int> <int> <int> <lgl> <chr>         <fct>    <lgl>
#>  1    40     14    85    36 FALSE Inhoud        0        TRUE 
#>  2    56     14   197    36 FALSE Uitgelicht    0        TRUE 
#>  3    65     14   322    36 FALSE Verdieping    0        TRUE 
#>  4    46     14   458    36 FALSE Bijlagen      0        TRUE 
#>  5   177     29   307   144 TRUE  Doelmatigheid 1        FALSE
#>  6    21     29   490   144 TRUE  in            1        FALSE
#>  7    38     29   517   144 TRUE  het           1        FALSE
#>  8   152     29   562   144 TRUE  operationele  1        FALSE
#>  9    80     29   720   144 FALSE proces        1        FALSE
#> 10    24     22   307   198 TRUE  De            1        FALSE
#> # ℹ 508 more rows
#> 
#> [[22]]
#> # A tibble: 608 × 8
#>    width height     x     y space text          .cluster noise
#>    <int>  <int> <int> <int> <lgl> <chr>         <fct>    <lgl>
#>  1    40     14    85    36 FALSE Inhoud        0        TRUE 
#>  2    56     14   197    36 FALSE Uitgelicht    0        TRUE 
#>  3    65     14   322    36 FALSE Verdieping    0        TRUE 
#>  4    46     14   458    36 FALSE Bijlagen      0        TRUE 
#>  5    33     22   307   150 TRUE  Van           1        FALSE
#>  6    22     22   345   150 TRUE  de            1        FALSE
#>  7   113     22   372   150 TRUE  ingetekende,  1        FALSE
#>  8    81     22   490   150 TRUE  voorlopig     1        FALSE
#>  9   124     22   576   150 TRUE  geselecteerde 1        FALSE
#> 10    98     22   705   150 TRUE  voorstellen,  1        FALSE
#> # ℹ 598 more rows
#> 
#> [[23]]
#> # A tibble: 356 × 8
#>    width height     x     y space text          .cluster noise
#>    <int>  <int> <int> <int> <lgl> <chr>         <fct>    <lgl>
#>  1    40     14    85    36 FALSE Inhoud        0        TRUE 
#>  2    65     14   322    36 FALSE Verdieping    0        TRUE 
#>  3    56     14   197    36 FALSE Uitgelicht    0        TRUE 
#>  4    46     14   458    36 FALSE Bijlagen      0        TRUE 
#>  5   130     29   307   142 TRUE  Monitoring    1        FALSE
#>  6    43     29   443   142 TRUE  van           1        FALSE
#>  7   174     29   492   142 TRUE  doelmatigheid 1        FALSE
#>  8    64     29   673   142 TRUE  langs         1        FALSE
#>  9    47     29   743   142 TRUE  drie          1        FALSE
#> 10   118     29   796   142 FALSE dimensies     1        FALSE
#> # ℹ 346 more rows
#> 
#> [[24]]
#> # A tibble: 214 × 8
#>    width height     x     y space text         .cluster noise
#>    <int>  <int> <int> <int> <lgl> <chr>        <fct>    <lgl>
#>  1    40     14    85    36 FALSE "Inhoud"     0        TRUE 
#>  2    65     14   322    36 FALSE "Verdieping" 0        TRUE 
#>  3    56     14   197    36 FALSE "Uitgelicht" 0        TRUE 
#>  4    46     14   458    36 FALSE "Bijlagen"   0        TRUE 
#>  5    21     22   307   150 TRUE  "12."        1        FALSE
#>  6    13     22   332   150 FALSE "U"          1        FALSE
#>  7     4     22   332   150 TRUE  "\a"         1        FALSE
#>  8    67     22   346   150 TRUE  "itgaven"    1        FALSE
#>  9    53     22   418   150 TRUE  "Audio"      1        FALSE
#> 10    41     22   476   150 TRUE  "naar"       1        FALSE
#> # ℹ 204 more rows
…
