Detect Columns and Text Boxes in PDF Document — pdf_detect_clusters • pdftextclusteR
…
   pdf_detect_clusters()
#> [[1]]
#> # A tibble: 7 × 8
#>   width height     x     y space text      .cluster noise
#>   <int>  <int> <int> <int> <lgl> <chr>     <fct>    <lgl>
#> 1   693    184    85   748 TRUE  Terugblik 0        TRUE 
#> 2   362    184   814   748 FALSE 2023      0        TRUE 
#> 3    65     18    84  1029 TRUE  Terugblik 1        FALSE
#> 4    34     18   154  1029 FALSE 2023      1        FALSE
#> 5    28     18   530  1029 TRUE  Ons       2        FALSE
#> 6    54     18   562  1029 FALSE verhaal   2        FALSE
#> 7    13     18  1821  1029 FALSE 12        0        TRUE 
#> 
#> [[2]]
#> # A tibble: 242 × 8
#>    width height     x     y space text       .cluster noise
#>    <int>  <int> <int> <int> <lgl> <chr>      <fct>    <lgl>
#>  1    41     14    85    36 FALSE Inhoud     0        TRUE 
#>  2    56     14   197    36 FALSE Uitgelicht 0        TRUE 
#>  3    62     14   322    36 FALSE Verdieping 0        TRUE 
#>  4    46     14   458    36 FALSE Bijlagen   0        TRUE 
#>  5   246     59    85   100 FALSE Leeswijzer 1        FALSE
#>  6    24     22    84   187 TRUE  De         1        FALSE
#>  7    83     22   112   187 TRUE  Terugblik  1        FALSE
#>  8    13     22   199   187 TRUE  is         1        FALSE
#>  9    22     22   217   187 TRUE  de         1        FALSE
#> 10    81     22   245   187 TRUE  jaarlijkse 1        FALSE
#> # ℹ 232 more rows
#> 
#> [[3]]
#> # A tibble: 226 × 8
#>    width height     x     y space text        .cluster noise
#>    <int>  <int> <int> <int> <lgl> <chr>       <fct>    <lgl>
#>  1    40     14    85    36 FALSE Inhoud      0        TRUE 
#>  2    58     14   197    36 FALSE Uitgelicht  0        TRUE 
#>  3    62     14   322    36 FALSE Verdieping  0        TRUE 
#>  4    46     14   458    36 FALSE Bijlagen    0        TRUE 
#>  5   559    110    85    91 FALSE Voortdurend 1        FALSE
#>  6    81    110    85   176 TRUE  in          1        FALSE
#>  7   480    110   186   176 FALSE verbinding  1        FALSE
#>  8    16     22    84   310 TRUE  In          1        FALSE
#>  9    32     22   105   310 TRUE  een         1        FALSE
#> 10   112     22   141   310 TRUE  samenleving 1        FALSE
#> # ℹ 216 more rows
#> 

# 3th page
npo[[3]] |>
   pdf_detect_clusters()
#> # A tibble: 226 × 8
#>    width height     x     y space text        .cluster noise
#>    <int>  <int> <int> <int> <lgl> <chr>       <fct>    <lgl>
#>  1    40     14    85    36 FALSE Inhoud      0        TRUE 
#>  2    58     14   197    36 FALSE Uitgelicht  0        TRUE 
#>  3    62     14   322    36 FALSE Verdieping  0        TRUE 
#>  4    46     14   458    36 FALSE Bijlagen    0        TRUE 
#>  5   559    110    85    91 FALSE Voortdurend 1        FALSE
#>  6    81    110    85   176 TRUE  in          1        FALSE
#>  7   480    110   186   176 FALSE verbinding  1        FALSE
#>  8    16     22    84   310 TRUE  In          1        FALSE
#>  9    32     22   105   310 TRUE  een         1        FALSE
#> 10   112     22   141   310 TRUE  samenleving 1        FALSE
#> # ℹ 216 more rows
…
